9788806437602
9788811376712
9788804456650
9788817169547
9788804058489
9788804082729
9788804114147
9788804106852
9788804074595
9788804042655
9788804094982
9788804264569
9788804097457
9788804074588
9788804068082
9788804114154
9788804350002
9788804063384
9788804330561
9788804186939
9788804137863
9788804081821
9788804336075
9788804068075
9788804680758
9788844600105
9788804361664
9788842515746
9788817125284
9788841892428
9788835937494
9788841892435
9788804551454
9788811582724
9788804645429
9788804486435
9788851127565
9788817167024
9788804366812
9788802037790
9788811370048
9788811364498
9780198146261
9788818167115
9788802021409
9788802034188
9788802035734
9788802024059
9788802023243
9788802026572
9788802026671
9788802024684
9788804487227
9780485137088
9788817122245
9788817169707
9788879280044
9788804520924
9788802076102
9788854145900
9783110439618
9782251013442
9788806098940
9788806550462
9788806566067
9788806577292
9788806577377
9788806593421
9788806114206
9788882340094
9788882341947
9788818220285
9788809207103
9788806124779
9788845247965
9788817171823
9788817171830
9788817172172
9788817172189
9788817172196
9788817169868
9788817172769
9788817866323
9788817129800
9788845215940
9788802018461
9788804386445
9788804397922
9788817168533
9788811364566
9788817123822
9788800852531
9788802050386
9788802076751
9788817167864
9788802037998
9788831769631
9788876922480
9788804365464
9781293674048
9789004074866
9780674993143
9780674994782
9783487116310
9788809051003
9788808113580
9788808139825
9781293915257
9781275283749
9783110821871
9783110824964
9783110821864
9783110824957
9788804284505
788804111832
9788804115847
9788804121916
9788804121923
9788810420171
9781293674048
9788867352272
9788804364504
9788802060804
9788822237064
9782870311127
9788884760531
9782251010205
9783322008534
9782251010199
9788802018225
9788871662084
9788881471157
9788842705680
9788842705376
9788842705383
9788842705390
9788802055749
9788804342236
9788808016683
9788808016942
9788808018502
9788808025906
9788878194830
9788878194847
9788878194854
9788878194861
9788817123112
9788831748476
9783598715730
9781146528795
9781295329601
9783322001627
9788804322023
9781103033577
9781298230652
9783322001689
9788804366249
9788804366256
9788831130103
9788806125851
9788802026596
9788842705673
9788842705666
9788839201812
9788845291029
9788838314032
9788822249203
9783598712791
9783111812403
9788818224849
9788848800600
9788820727895
